
/usr/sbin/scrawl_log --host=192.168.247.157 --port=1201 --file=/app/logs/php.log --category=php_pds --prefix="ca401 pds "

/usr/sbin/scrawl_log --host=127.0.0.1 --port=1201 --file=/tmp/test.log --category=test1 --prefix="testing scrawl tcp: "

